# Blender v2.93.6 OBJ File: ''
# www.blender.org
mtllib link6.mtl
o link6_assm
v -0.048834 0.060099 -0.009468
v 0.020845 0.070825 -0.042886
v 0.003139 0.071131 -0.047461
v 0.013608 0.059656 -0.048071
v 0.033249 0.073924 -0.031082
v 0.019059 0.075312 -0.039253
v 0.003350 0.075797 -0.043096
v -0.028365 0.073288 -0.036981
v -0.014212 0.075426 -0.041105
v -0.034305 0.071112 -0.032834
v -0.016572 0.069999 -0.045217
v -0.027483 0.060447 -0.041431
v -0.046754 0.064722 -0.016137
v -0.042096 0.071328 -0.022024
v -0.039107 0.060799 -0.030932
v 0.042338 0.070498 -0.022314
v 0.046668 0.060580 -0.017259
v 0.030585 0.066021 -0.038756
v 0.038916 0.059009 -0.031264
v -0.000293 0.065396 -0.049317
v 0.058001 0.075715 0.156588
v 0.062917 0.082349 0.150539
v 0.057280 0.097293 0.148563
v 0.049730 0.073949 0.159202
v 0.060518 0.059402 0.153559
v 0.056256 0.045808 0.150961
v 0.062747 0.046925 0.145791
v 0.065764 0.068623 0.148084
v 0.056228 0.110963 0.134217
v 0.058025 0.116036 0.117933
v 0.062735 0.105778 0.133124
v 0.049972 0.119622 0.111210
v 0.050031 0.104002 0.146109
v 0.054335 0.023720 0.124761
v 0.057099 0.032748 0.138977
v 0.047941 0.030460 0.140125
v 0.058974 0.115210 0.100128
v 0.063512 0.109184 0.095354
v 0.062997 0.029028 0.120905
v 0.072081 0.069532 0.111710
v 0.062960 0.096004 0.143493
v 0.070083 0.072199 0.132257
v 0.069219 0.051844 0.131628
v 0.069036 0.091781 0.128892
v 0.062950 0.036481 0.135991
v 0.068265 0.094874 0.091349
v 0.064431 0.110131 0.117203
v 0.070568 0.089172 0.107903
v 0.069370 0.043041 0.114837
v 0.070934 0.058105 0.098874
v 0.070959 0.075571 0.094360
v -0.013357 0.058954 -0.048088
v 0.003166 -0.000000 -0.049977
v -0.047064 -0.000000 -0.017603
v 0.023466 0.000000 -0.044631
v -0.050209 -0.000092 -0.000499
v -0.049999 0.058717 0.158971
v -0.049999 0.028362 0.138125
v 0.038412 -0.000000 -0.032252
v 0.042828 0.025148 0.132025
v 0.049304 -0.000002 0.013595
v -0.049999 0.041362 0.151099
v -0.049999 0.077239 0.159682
v -0.049969 0.022323 0.126445
v -0.050058 0.119068 0.098391
v -0.049999 0.104963 0.147055
v -0.050000 0.118676 0.122120
v 0.051619 0.062480 0.158496
v 0.049147 0.087527 0.156363
v 0.048102 0.049802 0.155452
v 0.049002 0.037772 0.147623
v 0.047675 0.117792 0.096210
v 0.048458 0.115242 0.130536
v 0.048121 -0.000071 -0.015292
v 0.019252 0.000002 0.046993
v -0.041406 0.000009 0.030499
v -0.037206 -0.000000 -0.033973
v -0.014430 -0.000000 -0.048488
v -0.009917 -0.000002 0.049685
vn -0.5339 -0.4895 0.6895
vn -0.4200 -0.6662 0.6162
vn -0.1971 -0.6632 0.7220
vn -0.1976 -0.6649 0.7204
vn 0.1008 -0.6283 0.7714
vn 0.1871 -0.1957 0.9626
vn 0.3008 -0.6556 0.6926
vn 0.1261 -0.3730 0.9192
vn 0.1213 -0.6810 0.7222
vn -0.7156 -0.3473 0.6061
vn -0.4173 -0.3290 -0.8471
vn -0.6682 -0.3395 -0.6620
vn -0.4581 0.0935 -0.8840
vn -0.3863 0.2885 -0.8761
vn -0.8394 0.1712 -0.5159
vn -0.6221 0.3306 -0.7097
vn -0.7330 0.0132 -0.6801
vn -0.6702 -0.6947 -0.2613
vn -0.6254 -0.7228 -0.2942
vn -0.2273 -0.9458 -0.2321
vn -0.2594 0.7095 -0.6552
vn -0.9037 -0.3212 -0.2832
vn -0.9273 -0.1523 -0.3419
vn -0.9540 -0.0996 -0.2829
vn -0.9276 0.3274 -0.1800
vn -0.9226 0.3446 -0.1732
vn -0.9878 -0.1231 0.0950
vn -0.9553 -0.2938 0.0317
vn 0.9972 -0.0199 -0.0714
vn 0.9968 0.0690 -0.0405
vn 0.9938 -0.0948 0.0586
vn 0.9938 0.0683 0.0878
vn 0.9937 -0.0454 0.1025
vn 0.9942 0.0885 0.0616
vn 0.9754 -0.1999 -0.0931
vn 0.0001 -1.0000 0.0003
vn -0.0000 -1.0000 -0.0000
vn 0.0000 -1.0000 -0.0001
vn 0.9366 -0.3484 -0.0375
vn 0.9838 -0.0461 -0.1731
vn 0.9693 0.1003 -0.2244
vn 0.9097 -0.4153 -0.0037
vn 0.9663 -0.0488 0.2527
vn 0.9469 0.1451 0.2869
vn 0.9255 0.2673 -0.2684
vn 0.8843 0.3725 -0.2816
vn 0.9062 -0.2798 0.3169
vn 0.5638 -0.8126 0.1479
vn 0.5826 -0.5288 0.6172
vn 0.8679 0.0009 -0.4968
vn 0.6661 -0.0055 -0.7458
vn 0.5441 0.3084 0.7803
vn 0.6037 0.7187 -0.3449
vn 0.6240 -0.6998 0.3477
vn 0.5781 0.6115 0.5403
vn 0.3030 -0.0087 0.9529
vn -0.5998 0.1338 -0.7889
vn 0.2540 0.2084 0.9445
vn 0.2159 -0.9569 0.1944
vn 0.3202 0.8839 -0.3409
vn 0.2716 0.9495 -0.1574
vn 0.1994 -0.5239 0.8281
vn 0.1806 -0.8709 0.4572
vn 0.2546 -0.0137 -0.9669
vn 0.8619 0.1260 -0.4912
vn 0.2840 0.8961 -0.3410
vn 0.1768 0.8065 0.5642
vn 0.1069 0.9420 -0.3180
vn 0.0131 0.5279 0.8492
vn 0.0115 0.2052 0.9787
vn 0.0061 -0.0383 0.9992
vn 0.0028 -0.0610 0.9981
vn -0.0077 0.9998 0.0165
vn 0.0133 0.8114 0.5843
vn -1.0000 0.0000 0.0000
vn -0.0008 -0.7064 0.7078
vn 0.0068 -0.8382 0.5454
vn -0.0553 0.9488 -0.3110
vn 0.0060 0.9569 -0.2904
vn -1.0000 -0.0014 -0.0018
vn -1.0000 -0.0004 0.0019
vn 0.9948 -0.1016 0.0016
vn -0.2377 0.9079 -0.3451
vn -0.5062 0.2512 -0.8251
vn -0.4934 0.7969 -0.3486
vn -0.8567 -0.0010 -0.5159
vn -0.8793 0.4199 -0.2246
vn -0.9625 0.2333 -0.1385
vn 0.0102 0.9924 -0.1226
vn -0.9996 0.0195 -0.0220
vn 0.9765 0.0164 -0.2147
vn 0.9634 0.2655 0.0373
vn -1.0000 -0.0001 0.0010
vn 0.9174 -0.1658 0.3617
vn 0.9430 0.3283 -0.0539
vn 0.9152 0.3533 0.1941
vn 0.6282 -0.5259 0.5734
vn -0.4136 0.1144 -0.9033
vn 0.7540 0.0391 0.6557
vn -0.0006 -0.8883 0.4593
vn 0.7740 0.6303 -0.0599
vn 0.6779 0.7351 0.0020
vn 0.2451 0.2730 -0.9303
vn 0.5972 -0.7246 0.3440
vn 0.6109 0.5827 0.5360
vn -0.6699 0.0162 -0.7422
vn -0.6522 0.2079 -0.7290
vn 0.3397 0.8867 0.3137
vn 0.3390 -0.3076 0.8891
vn 0.3626 -0.6173 0.6982
vn 0.1895 0.5115 0.8381
vn -0.7811 0.2589 -0.5681
vn 0.2688 -0.8359 0.4786
vn 0.5979 0.7236 -0.3449
vn 0.0194 -0.9580 0.2861
vn -1.0000 0.0045 0.0025
vn -0.8867 0.0147 -0.4622
vn 0.0097 -0.5449 0.8385
vn 0.0133 -0.2370 0.9714
vn 0.1724 0.2085 -0.9627
vn 0.4162 0.6733 0.6111
vn 0.0954 0.0151 -0.9953
vn -0.5533 0.7232 -0.4132
vn 0.4204 0.9071 -0.0197
vn 0.4729 0.0274 -0.8807
vn 0.7549 0.2482 -0.6071
vn -0.4250 0.0139 -0.9051
vn -0.8565 0.1694 -0.4876
vn 0.4399 0.1276 -0.8889
vn -0.0002 -1.0000 -0.0003
vn 0.0005 -1.0000 0.0032
vn 0.0016 -1.0000 -0.0051
vn -0.0124 -0.9999 0.0029
vn 0.6379 0.0075 -0.7701
vn -0.0843 0.0056 -0.9964
vn -0.0049 -0.4131 0.9107
vn 0.0150 0.9749 0.2221
vn 0.0011 -0.7160 0.6981
vn 0.0166 -0.9758 0.2181
vn -0.0106 0.8762 0.4819
vn -0.5373 -0.0176 -0.8432
vn -0.1304 -0.9682 0.2135
vn -0.5175 -0.8425 0.1497
vn -0.9835 -0.0045 -0.1809
vn -0.0125 0.4145 0.9100
vn 0.8746 0.0052 -0.4847
vn -0.0979 0.0085 -0.9952
vn -0.9568 0.0112 -0.2907
usemtl R255_G255_B255.001
s off
f 18//1 5//1 2//1
f 6//2 2//2 5//2
f 7//3 2//3 6//3
f 3//4 2//4 7//4
f 9//5 11//5 7//5
f 11//6 52//6 20//6
f 8//7 11//7 9//7
f 20//8 3//8 11//8
f 3//9 7//9 11//9
f 5//10 18//10 16//10
f 23//11 21//11 69//11
f 41//12 22//12 23//12
f 25//13 68//13 21//13
f 26//14 68//14 25//14
f 27//15 25//15 28//15
f 26//16 25//16 27//16
f 21//17 28//17 25//17
f 47//18 31//18 30//18
f 29//19 30//19 31//19
f 73//20 32//20 30//20
f 71//21 35//21 36//21
f 31//22 44//22 41//22
f 44//23 28//23 41//23
f 28//24 44//24 42//24
f 43//25 49//25 45//25
f 39//26 45//26 49//26
f 51//27 48//27 46//27
f 47//28 46//28 48//28
f 50//29 51//29 40//29
f 48//30 40//30 51//30
f 49//31 40//31 43//31
f 42//32 40//32 44//32
f 43//33 40//33 42//33
f 44//34 40//34 48//34
f 74//35 50//35 49//35
f 61//36 75//36 79//36
f 61//37 54//37 77//37
f 61//38 53//38 55//38
f 61//38 55//38 59//38
f 49//39 61//39 74//39
f 74//40 51//40 50//40
f 17//41 46//41 51//41
f 49//42 39//42 61//42
f 28//43 43//43 42//43
f 41//44 22//44 28//44
f 16//45 46//45 17//45
f 16//46 38//46 46//46
f 27//47 45//47 43//47
f 39//48 34//48 61//48
f 35//49 27//49 26//49
f 59//50 19//50 74//50
f 55//51 18//51 19//51
f 22//52 23//52 21//52
f 16//53 5//53 38//53
f 35//54 39//54 45//54
f 23//55 31//55 29//55
f 68//56 21//56 24//56
f 8//57 15//57 10//57
f 69//58 24//58 21//58
f 75//59 61//59 34//59
f 5//60 72//60 37//60
f 72//61 32//61 37//61
f 70//62 71//62 26//62
f 36//63 60//63 34//63
f 55//64 53//64 4//64
f 16//65 17//65 19//65
f 6//66 72//66 5//66
f 73//67 33//67 29//67
f 72//68 6//68 7//68
f 33//69 66//69 69//69
f 63//70 24//70 69//70
f 63//71 57//71 68//71
f 63//72 68//72 24//72
f 32//73 65//73 67//73
f 73//74 66//74 33//74
f 63//75 66//75 57//75
f 62//76 58//76 71//76
f 36//77 58//77 60//77
f 9//78 65//78 7//78
f 65//79 72//79 7//79
f 64//80 58//80 65//80
f 56//81 64//81 65//81
f 50//82 40//82 49//82
f 9//83 8//83 65//83
f 12//84 8//84 11//84
f 8//85 14//85 65//85
f 77//86 54//86 15//86
f 14//87 13//87 65//87
f 13//88 1//88 65//88
f 65//89 32//89 72//89
f 65//90 1//90 56//90
f 51//91 74//91 17//91
f 47//92 44//92 48//92
f 58//93 62//93 66//93 65//93
f 28//94 27//94 43//94
f 38//95 47//95 46//95
f 47//96 31//96 44//96
f 35//97 45//97 27//97
f 11//98 52//98 12//98
f 21//99 28//99 22//99
f 58//100 64//100 60//100
f 37//101 47//101 38//101
f 30//102 47//102 37//102
f 3//103 2//103 4//103
f 35//104 34//104 39//104
f 23//105 41//105 31//105
f 77//106 15//106 12//106
f 8//107 12//107 15//107
f 73//108 29//108 30//108
f 70//109 26//109 68//109
f 71//110 35//110 26//110
f 33//111 69//111 23//111
f 15//112 14//112 10//112
f 36//113 34//113 35//113
f 5//114 37//114 38//114
f 64//115 79//115 75//115 34//115
f 66//116 67//116 65//116
f 13//117 15//117 54//117
f 71//118 70//118 62//118
f 70//119 68//119 57//119
f 3//120 4//120 20//120
f 33//121 23//121 29//121
f 53//122 20//122 4//122
f 10//123 14//123 8//123
f 37//124 32//124 30//124
f 4//125 18//125 55//125
f 18//126 16//126 19//126
f 78//127 12//127 52//127
f 14//128 15//128 13//128
f 2//129 18//129 4//129
usemtl R229_G237_B235.001
f 61//130 79//130 76//130
f 61//131 76//131 56//131
f 61//132 56//132 54//132
f 61//37 77//37 78//37
f 61//37 78//37 53//37
f 61//133 59//133 74//133
f 59//134 55//134 19//134
f 53//135 78//135 20//135
f 70//136 57//136 62//136
f 32//137 67//137 73//137
f 71//138 58//138 36//138
f 60//139 64//139 34//139
f 73//140 67//140 66//140
f 66//75 62//75 57//75
f 77//141 12//141 78//141
f 76//142 79//142 64//142
f 56//143 76//143 64//143
f 1//144 54//144 56//144
f 69//145 66//145 63//145
f 19//146 17//146 74//146
f 52//147 20//147 78//147
f 54//148 1//148 13//148
