# Blender MTL File: 'None'
# Material Count: 2

newmtl R229_G237_B235.005
Ns 0.000000
Ka 1.000000 1.000000 1.000000
Kd 0.898039 0.921569 0.929412
Ks 0.000000 0.000000 0.000000
Ke 0.000000 0.000000 0.000000
Ni 1.450000
d 1.000000
illum 1
map_Kd R229_G237_B235

newmtl R255_G255_B255.004
Ns 0.000000
Ka 1.000000 1.000000 1.000000
Kd 1.000000 1.000000 1.000000
Ks 0.000000 0.000000 0.000000
Ke 0.000000 0.000000 0.000000
Ni 1.450000
d 1.000000
illum 1
map_Kd R255_G255_B255
